139.99.88.243	a.ppy.sh
139.99.88.243	bm6.ppy.sh
139.99.88.243	c.ppy.sh
139.99.88.243	c1.ppy.sh
139.99.88.243	c2.ppy.sh
139.99.88.243	c3.ppy.sh
139.99.88.243	c4.ppy.sh
139.99.88.243	c5.ppy.sh
139.99.88.243	c6.ppy.sh
139.99.88.243	ce.ppy.sh
139.99.88.243	i.ppy.sh
139.99.88.243	osu.ppy.sh
139.99.88.243	s.ppy.sh

Testing staticallyy
